# Blender v2.70 (sub 0) OBJ File: 'CeZium_Tanks.blend'
# www.blender.org
mtllib CeZiumTank.mtl
o CeZiumTank_Cylinder.002
v 0.000000 0.454106 -0.294389
v -0.037775 0.454106 -0.310035
v -0.053421 0.454106 -0.347810
v -0.037775 0.454106 -0.385584
v 0.000000 0.454106 -0.401231
v 0.037775 0.454106 -0.385584
v 0.053421 0.454106 -0.347810
v 0.037775 0.454106 -0.310035
v 0.046295 0.455202 -0.301515
v 0.065471 0.455202 -0.347810
v 0.046295 0.455202 -0.394105
v 0.000000 0.455202 -0.413281
v -0.046295 0.455202 -0.394105
v -0.065471 0.455202 -0.347810
v -0.046295 0.455202 -0.301515
v 0.000000 0.455202 -0.282339
v 0.046295 0.515439 -0.301515
v 0.065471 0.515439 -0.347810
v 0.046295 0.515439 -0.394105
v 0.000000 0.515439 -0.413281
v -0.046295 0.515439 -0.394105
v -0.065471 0.515439 -0.347810
v -0.046295 0.515439 -0.301515
v 0.000000 0.515439 -0.282339
v 0.026635 0.571207 -0.321175
v 0.037668 0.571207 -0.347810
v 0.026635 0.571207 -0.374445
v 0.000000 0.571207 -0.385478
v -0.026635 0.571207 -0.374445
v -0.037668 0.571207 -0.347810
v -0.026635 0.571207 -0.321175
v 0.000000 0.571207 -0.310142
v 0.026635 0.609536 -0.321175
v 0.037668 0.609536 -0.347810
v 0.026635 0.609536 -0.374445
v 0.000000 0.609536 -0.385478
v -0.026635 0.609536 -0.374445
v -0.037668 0.609536 -0.347810
v -0.026635 0.609536 -0.321175
v 0.000000 0.609536 -0.310142
v 0.000000 -0.454106 -0.294389
v -0.037775 -0.454106 -0.310035
v -0.053421 -0.454106 -0.347810
v -0.037775 -0.454106 -0.385584
v 0.000000 -0.454106 -0.401231
v 0.037775 -0.454106 -0.385584
v 0.053421 -0.454106 -0.347810
v 0.037775 -0.454106 -0.310035
v 0.046295 -0.455202 -0.301515
v 0.065471 -0.455202 -0.347810
v 0.046295 -0.455202 -0.394105
v 0.000000 -0.455202 -0.413281
v -0.046295 -0.455202 -0.394105
v -0.065471 -0.455202 -0.347810
v -0.046295 -0.455202 -0.301515
v 0.000000 -0.455202 -0.282339
v 0.046295 -0.515439 -0.301515
v 0.065471 -0.515439 -0.347810
v 0.046295 -0.515439 -0.394105
v 0.000000 -0.515439 -0.413281
v -0.046295 -0.515439 -0.394105
v -0.065471 -0.515439 -0.347810
v -0.046295 -0.515439 -0.301515
v 0.000000 -0.515439 -0.282339
v 0.026635 -0.571207 -0.321175
v 0.037668 -0.571207 -0.347810
v 0.026635 -0.571207 -0.374445
v 0.000000 -0.571207 -0.385478
v -0.026635 -0.571207 -0.374445
v -0.037668 -0.571207 -0.347810
v -0.026635 -0.571207 -0.321175
v 0.000000 -0.571207 -0.310142
v 0.026635 -0.609536 -0.321175
v 0.037668 -0.609536 -0.347810
v 0.026635 -0.609536 -0.374445
v 0.000000 -0.609536 -0.385478
v -0.026635 -0.609536 -0.374445
v -0.037668 -0.609536 -0.347810
v -0.026635 -0.609536 -0.321175
v 0.000000 -0.609536 -0.310142
v 0.114486 0.454106 -0.294389
v 0.076711 0.454106 -0.310035
v 0.061065 0.454106 -0.347810
v 0.076711 0.454106 -0.385584
v 0.114486 0.454106 -0.401231
v 0.152261 0.454106 -0.385584
v 0.167907 0.454106 -0.347810
v 0.152261 0.454106 -0.310035
v 0.160781 0.455202 -0.301515
v 0.179957 0.455202 -0.347810
v 0.160781 0.455202 -0.394105
v 0.114486 0.455202 -0.413281
v 0.068191 0.455202 -0.394105
v 0.049015 0.455202 -0.347810
v 0.068191 0.455202 -0.301515
v 0.114486 0.455202 -0.282339
v 0.160781 0.515439 -0.301515
v 0.179957 0.515439 -0.347810
v 0.160781 0.515439 -0.394105
v 0.114486 0.515439 -0.413281
v 0.068191 0.515439 -0.394105
v 0.049015 0.515439 -0.347810
v 0.068191 0.515439 -0.301515
v 0.114486 0.515439 -0.282339
v 0.141121 0.571207 -0.321175
v 0.152154 0.571207 -0.347810
v 0.141121 0.571207 -0.374445
v 0.114486 0.571207 -0.385478
v 0.087851 0.571207 -0.374445
v 0.076818 0.571207 -0.347810
v 0.087851 0.571207 -0.321175
v 0.114486 0.571207 -0.310142
v 0.141121 0.609536 -0.321175
v 0.152154 0.609536 -0.347810
v 0.141121 0.609536 -0.374445
v 0.114486 0.609536 -0.385478
v 0.087851 0.609536 -0.374445
v 0.076818 0.609536 -0.347810
v 0.087851 0.609536 -0.321175
v 0.114486 0.609536 -0.310142
v 0.114486 -0.454106 -0.294389
v 0.076711 -0.454106 -0.310035
v 0.061065 -0.454106 -0.347810
v 0.076711 -0.454106 -0.385584
v 0.114486 -0.454106 -0.401231
v 0.152261 -0.454106 -0.385584
v 0.167907 -0.454106 -0.347810
v 0.152261 -0.454106 -0.310035
v 0.160781 -0.455202 -0.301515
v 0.179957 -0.455202 -0.347810
v 0.160781 -0.455202 -0.394105
v 0.114486 -0.455202 -0.413281
v 0.068191 -0.455202 -0.394105
v 0.049015 -0.455202 -0.347810
v 0.068191 -0.455202 -0.301515
v 0.114486 -0.455202 -0.282339
v 0.160781 -0.515439 -0.301515
v 0.179957 -0.515439 -0.347810
v 0.160781 -0.515439 -0.394105
v 0.114486 -0.515439 -0.413281
v 0.068191 -0.515439 -0.394105
v 0.049015 -0.515439 -0.347810
v 0.068191 -0.515439 -0.301515
v 0.114486 -0.515439 -0.282339
v 0.141121 -0.571207 -0.321175
v 0.152154 -0.571207 -0.347810
v 0.141121 -0.571207 -0.374445
v 0.114486 -0.571207 -0.385478
v 0.087851 -0.571207 -0.374445
v 0.076818 -0.571207 -0.347810
v 0.087851 -0.571207 -0.321175
v 0.114486 -0.571207 -0.310142
v 0.141121 -0.609536 -0.321175
v 0.152154 -0.609536 -0.347810
v 0.141121 -0.609536 -0.374445
v 0.114486 -0.609536 -0.385478
v 0.087851 -0.609536 -0.374445
v 0.076818 -0.609536 -0.347810
v 0.087851 -0.609536 -0.321175
v 0.114486 -0.609536 -0.310142
v -0.114486 0.454106 -0.294389
v -0.152261 0.454106 -0.310035
v -0.167907 0.454106 -0.347810
v -0.152261 0.454106 -0.385584
v -0.114486 0.454106 -0.401231
v -0.076711 0.454106 -0.385584
v -0.061065 0.454106 -0.347810
v -0.076711 0.454106 -0.310035
v -0.068191 0.455202 -0.301515
v -0.049015 0.455202 -0.347810
v -0.068191 0.455202 -0.394105
v -0.114486 0.455202 -0.413281
v -0.160781 0.455202 -0.394105
v -0.179957 0.455202 -0.347810
v -0.160781 0.455202 -0.301515
v -0.114486 0.455202 -0.282339
v -0.068191 0.515439 -0.301515
v -0.049015 0.515439 -0.347810
v -0.068191 0.515439 -0.394105
v -0.114486 0.515439 -0.413281
v -0.160781 0.515439 -0.394105
v -0.179957 0.515439 -0.347810
v -0.160781 0.515439 -0.301515
v -0.114486 0.515439 -0.282339
v -0.087851 0.571207 -0.321175
v -0.076818 0.571207 -0.347810
v -0.087851 0.571207 -0.374445
v -0.114486 0.571207 -0.385478
v -0.141121 0.571207 -0.374445
v -0.152154 0.571207 -0.347810
v -0.141121 0.571207 -0.321175
v -0.114486 0.571207 -0.310142
v -0.087851 0.609536 -0.321175
v -0.076818 0.609536 -0.347810
v -0.087851 0.609536 -0.374445
v -0.114486 0.609536 -0.385478
v -0.141121 0.609536 -0.374445
v -0.152154 0.609536 -0.347810
v -0.141121 0.609536 -0.321175
v -0.114486 0.609536 -0.310142
v -0.114486 -0.454106 -0.294389
v -0.152261 -0.454106 -0.310035
v -0.167907 -0.454106 -0.347810
v -0.152261 -0.454106 -0.385584
v -0.114486 -0.454106 -0.401231
v -0.076711 -0.454106 -0.385584
v -0.061065 -0.454106 -0.347810
v -0.076711 -0.454106 -0.310035
v -0.068191 -0.455202 -0.301515
v -0.049015 -0.455202 -0.347810
v -0.068191 -0.455202 -0.394105
v -0.114486 -0.455202 -0.413281
v -0.160781 -0.455202 -0.394105
v -0.179957 -0.455202 -0.347810
v -0.160781 -0.455202 -0.301515
v -0.114486 -0.455202 -0.282339
v -0.068191 -0.515439 -0.301515
v -0.049015 -0.515439 -0.347810
v -0.068191 -0.515439 -0.394105
v -0.114486 -0.515439 -0.413281
v -0.160781 -0.515439 -0.394105
v -0.179957 -0.515439 -0.347810
v -0.160781 -0.515439 -0.301515
v -0.114486 -0.515439 -0.282339
v -0.087851 -0.571207 -0.321175
v -0.076818 -0.571207 -0.347810
v -0.087851 -0.571207 -0.374445
v -0.114486 -0.571207 -0.385478
v -0.141121 -0.571207 -0.374445
v -0.152154 -0.571207 -0.347810
v -0.141121 -0.571207 -0.321175
v -0.114486 -0.571207 -0.310142
v -0.087851 -0.609536 -0.321175
v -0.076818 -0.609536 -0.347810
v -0.087851 -0.609536 -0.374445
v -0.114486 -0.609536 -0.385478
v -0.141121 -0.609536 -0.374445
v -0.152154 -0.609536 -0.347810
v -0.141121 -0.609536 -0.321175
v -0.114486 -0.609536 -0.310142
v 0.060774 0.769598 0.146720
v 0.060774 0.896482 0.146720
v -0.060773 0.769598 0.146720
v -0.060773 0.896482 0.146720
v -0.146720 0.769598 0.060774
v -0.146720 0.896482 0.060774
v -0.146720 0.769598 -0.060773
v -0.146720 0.896482 -0.060773
v -0.060774 0.769598 -0.146720
v -0.060774 0.896482 -0.146720
v 0.060774 0.769598 -0.146720
v 0.060774 0.896482 -0.146720
v 0.146720 0.769598 -0.060774
v 0.146720 0.896482 -0.060774
v 0.146720 0.769598 0.060773
v 0.146720 0.896482 0.060773
v 0.029479 0.896842 0.071168
v -0.029479 0.896842 0.071168
v -0.071168 0.896842 0.029479
v -0.071168 0.896842 -0.029479
v -0.029479 0.896842 -0.071168
v 0.029479 0.896842 -0.071168
v 0.071168 0.896842 -0.029479
v 0.071168 0.896842 0.029479
v 0.029479 0.933532 0.071168
v -0.029479 0.933532 0.071168
v -0.071168 0.933532 0.029479
v -0.071168 0.933532 -0.029479
v -0.029479 0.933532 -0.071168
v 0.029479 0.933532 -0.071168
v 0.071168 0.933532 -0.029479
v 0.071168 0.933532 0.029479
v 0.000000 0.933532 0.000000
v -0.232868 -0.639276 0.403339
v -0.232868 0.639276 0.403339
v -0.465735 -0.639276 -0.000000
v -0.465735 0.639276 -0.000000
v -0.232868 -0.639276 -0.403339
v -0.232868 0.639276 -0.403339
v -0.150084 -0.793397 0.259953
v -0.150084 0.793397 0.259953
v -0.300168 -0.793397 -0.000000
v -0.300168 0.793397 -0.000000
v -0.150084 -0.793397 -0.259953
v -0.150084 0.793397 -0.259953
v -0.177181 0.592906 -0.403339
v -0.177181 -0.592906 -0.403339
v -0.177181 0.592906 -0.247453
v -0.177181 -0.592906 -0.247453
v -0.177181 0.073075 -0.336504
v -0.177181 0.170018 -0.336504
v -0.177181 -0.371103 -0.336504
v -0.177181 -0.274160 -0.336504
v -0.232868 -0.274160 0.403338
v -0.232868 -0.371103 0.403338
v -0.232868 0.170018 0.403338
v -0.232868 0.073075 0.403338
v -0.465735 0.073075 -0.000000
v -0.465735 0.170018 -0.000000
v -0.465735 -0.371103 -0.000000
v -0.465735 -0.274160 -0.000000
v -0.232868 0.073075 -0.403339
v -0.232868 0.170018 -0.403339
v -0.232868 -0.371103 -0.403339
v -0.232868 -0.274160 -0.403339
v -0.177181 0.073075 -0.403339
v -0.177181 0.170018 -0.403339
v -0.177181 -0.371103 -0.403339
v -0.177181 -0.274160 -0.403339
v -0.177181 0.121547 -0.247453
v -0.177181 -0.322632 -0.247453
v -0.143817 0.073075 -0.371609
v -0.143817 0.170018 -0.371609
v -0.143817 -0.371103 -0.371609
v -0.143817 -0.274160 -0.371609
v -0.256460 -0.274160 0.444201
v -0.256460 -0.371103 0.444201
v -0.256460 0.170018 0.444201
v -0.256460 0.073075 0.444201
v -0.512919 0.073075 -0.000000
v -0.512919 0.170018 -0.000000
v -0.512919 -0.371103 -0.000000
v -0.512919 -0.274160 -0.000000
v -0.256460 0.073075 -0.444201
v -0.256460 0.170018 -0.444201
v -0.256460 -0.371103 -0.444201
v -0.256460 -0.274160 -0.444201
v -0.143817 0.073075 -0.436703
v -0.143817 0.170018 -0.436703
v -0.143817 -0.371103 -0.436703
v -0.143817 -0.274160 -0.436703
v -0.079828 0.793397 0.141309
v -0.161413 0.793397 -0.000000
v -0.079828 0.793397 -0.141309
v -0.346974 0.680815 -0.128409
v -0.284564 0.680815 -0.236506
v -0.256267 0.793397 -0.076039
v -0.193857 0.793397 -0.184136
v -0.183894 0.793397 -0.054602
v -0.138882 0.793397 -0.132564
v -0.282217 0.680433 0.241284
v -0.349948 0.680433 0.123970
v -0.194283 0.793397 0.183398
v -0.255851 0.793397 0.076759
v -0.137374 0.793397 0.137768
v -0.187637 0.793397 0.050711
v -0.359788 0.713471 -0.135807
v -0.297378 0.713471 -0.243904
v -0.307823 0.802918 -0.112023
v -0.250798 0.802918 -0.210793
v -0.205941 0.862162 -0.067331
v -0.160929 0.862162 -0.145293
v -0.295052 0.713061 0.248694
v -0.362783 0.713061 0.131381
v -0.249261 0.804346 0.210079
v -0.306446 0.804346 0.111032
v -0.159375 0.862109 0.150471
v -0.209638 0.862109 0.063414
v 0.232868 -0.639276 0.403339
v 0.232868 0.639276 0.403339
v 0.465735 -0.639276 -0.000000
v 0.465735 0.639276 -0.000000
v 0.232868 -0.639276 -0.403339
v 0.232868 0.639276 -0.403339
v 0.150084 -0.793397 0.259953
v 0.150084 0.793397 0.259953
v 0.300168 -0.793397 -0.000000
v 0.300168 0.793397 -0.000000
v 0.150084 -0.793397 -0.259953
v 0.150084 0.793397 -0.259953
v 0.177181 0.592906 -0.403339
v 0.177181 -0.592906 -0.403339
v 0.177181 0.592906 -0.247453
v 0.177181 -0.592906 -0.247453
v 0.177181 0.073075 -0.336504
v 0.177181 0.170018 -0.336504
v 0.177181 -0.371103 -0.336504
v 0.177181 -0.274160 -0.336504
v 0.232868 -0.274160 0.403338
v 0.232868 -0.371103 0.403338
v 0.232868 0.170018 0.403338
v 0.232868 0.073075 0.403338
v 0.465735 0.073075 -0.000000
v 0.465735 0.170018 -0.000000
v 0.465735 -0.371103 -0.000000
v 0.465735 -0.274160 -0.000000
v 0.232868 0.073075 -0.403339
v 0.232868 0.170018 -0.403339
v 0.232868 -0.371103 -0.403339
v 0.232868 -0.274160 -0.403339
v 0.177181 0.073075 -0.403339
v 0.177181 0.170018 -0.403339
v 0.177181 -0.371103 -0.403339
v 0.177181 -0.274160 -0.403339
v 0.177181 0.121547 -0.247453
v 0.177181 -0.322632 -0.247453
v 0.143817 0.073075 -0.371609
v 0.143817 0.170018 -0.371609
v 0.143817 -0.371103 -0.371609
v 0.143817 -0.274160 -0.371609
v 0.256460 -0.274160 0.444201
v 0.256460 -0.371103 0.444201
v 0.256460 0.170018 0.444201
v 0.256460 0.073075 0.444201
v 0.512919 0.073075 -0.000000
v 0.512919 0.170018 -0.000000
v 0.512919 -0.371103 -0.000000
v 0.512919 -0.274160 -0.000000
v 0.256460 0.073075 -0.444201
v 0.256460 0.170018 -0.444201
v 0.256460 -0.371103 -0.444201
v 0.256460 -0.274160 -0.444201
v 0.143817 0.073075 -0.436703
v 0.143817 0.170018 -0.436703
v 0.143817 -0.371103 -0.436703
v 0.143817 -0.274160 -0.436703
v 0.079828 0.793397 0.141309
v 0.161413 0.793397 -0.000000
v 0.079828 0.793397 -0.141309
v 0.346974 0.680815 -0.128409
v 0.284564 0.680815 -0.236506
v 0.256267 0.793397 -0.076039
v 0.193857 0.793397 -0.184136
v 0.183894 0.793397 -0.054602
v 0.138882 0.793397 -0.132564
v 0.282217 0.680433 0.241284
v 0.349948 0.680433 0.123970
v 0.194941 0.793397 0.182259
v 0.255193 0.793397 0.077899
v 0.137374 0.793397 0.137768
v 0.187637 0.793397 0.050711
v 0.359788 0.713471 -0.135807
v 0.297378 0.713471 -0.243904
v 0.307823 0.802918 -0.112023
v 0.250798 0.802918 -0.210793
v 0.205941 0.862162 -0.067331
v 0.160929 0.862162 -0.145293
v 0.295052 0.713061 0.248694
v 0.362783 0.713061 0.131381
v 0.249261 0.804346 0.210079
v 0.306446 0.804346 0.111032
v 0.159375 0.862109 0.150471
v 0.209638 0.862109 0.063414
v -0.366735 -0.517865 0.099820
v -0.282540 -0.517865 0.245650
v -0.398136 -0.517865 0.284054
v -0.457791 -0.517865 0.180727
v -0.366735 0.517865 0.099820
v -0.282540 0.517865 0.245650
v -0.398136 0.517865 0.284054
v -0.457791 0.517865 0.180727
v -0.413995 0.517865 0.256584
v -0.441932 0.517865 0.208197
v -0.441932 -0.517865 0.208197
v -0.413995 -0.517865 0.256584
v -0.357906 0.517865 0.289163
v -0.357906 -0.517865 0.289163
v -0.442101 0.517865 0.143333
v -0.442101 -0.517865 0.143333
v -0.418709 -0.517865 0.183849
v -0.381298 -0.517865 0.248646
v -0.418709 0.517865 0.183849
v -0.381298 0.517865 0.248646
v -0.328880 -0.517865 0.272405
v -0.413075 0.517865 0.126575
v -0.328880 0.517865 0.272405
v -0.413075 -0.517865 0.126575
v -0.366735 -0.625324 0.099820
v -0.282540 -0.625324 0.245650
v -0.366735 0.625324 0.099820
v -0.282540 0.625324 0.245650
v -0.328880 -0.625324 0.272405
v -0.413075 0.625324 0.126575
v -0.328880 0.625324 0.272405
v -0.413075 -0.625324 0.126575
v 0.366735 -0.517865 0.099820
v 0.282540 -0.517865 0.245650
v 0.398136 -0.517865 0.284054
v 0.457791 -0.517865 0.180727
v 0.366735 0.517865 0.099820
v 0.282540 0.517865 0.245650
v 0.398136 0.517865 0.284054
v 0.457791 0.517865 0.180727
v 0.413995 0.517865 0.256584
v 0.441932 0.517865 0.208197
v 0.441932 -0.517865 0.208197
v 0.413995 -0.517865 0.256584
v 0.357906 0.517865 0.289163
v 0.357906 -0.517865 0.289163
v 0.442101 0.517865 0.143333
v 0.442101 -0.517865 0.143333
v 0.418709 -0.517865 0.183849
v 0.381298 -0.517865 0.248646
v 0.418709 0.517865 0.183849
v 0.381298 0.517865 0.248646
v 0.328880 -0.517865 0.272405
v 0.413075 0.517865 0.126575
v 0.328880 0.517865 0.272405
v 0.413075 -0.517865 0.126575
v 0.366735 -0.625324 0.099820
v 0.282540 -0.625324 0.245650
v 0.366735 0.625324 0.099820
v 0.282540 0.625324 0.245650
v 0.328880 -0.625324 0.272405
v 0.413075 0.625324 0.126575
v 0.328880 0.625324 0.272405
v 0.413075 -0.625324 0.126575
v -0.350301 0.540439 -0.188807
v -0.380277 0.540439 -0.206114
v -0.410145 0.333131 -0.085152
v -0.440122 0.333131 -0.102459
v -0.392980 0.273668 -0.114884
v -0.422956 0.273668 -0.132191
v -0.273290 0.273669 -0.322192
v -0.303267 0.273669 -0.339499
v -0.256125 0.333131 -0.351923
v -0.286102 0.333131 -0.369230
v -0.315970 0.540439 -0.248269
v -0.345946 0.540439 -0.265576
v -0.363112 0.382413 -0.235845
v 0.350301 0.540439 -0.188807
v 0.380277 0.540439 -0.206114
v 0.410145 0.333131 -0.085152
v 0.440122 0.333131 -0.102459
v 0.392980 0.273668 -0.114884
v 0.422956 0.273668 -0.132191
v 0.273290 0.273669 -0.322192
v 0.303267 0.273669 -0.339499
v 0.256125 0.333131 -0.351923
v 0.286102 0.333131 -0.369230
v 0.315970 0.540439 -0.248269
v 0.345947 0.540439 -0.265576
v 0.363112 0.382413 -0.235845
vt 0.928898 0.366802
vt 0.928256 0.066218
vt 0.941058 0.066218
vt 0.941464 0.366802
vt 0.916829 0.366802
vt 0.916087 0.066218
vt 0.904900 0.366802
vt 0.904131 0.066218
vt 0.892951 0.366802
vt 0.892213 0.066218
vt 0.880907 0.366802
vt 0.880268 0.066218
vt 0.856233 0.366802
vt 0.856603 0.066218
vt 0.868411 0.066218
vt 0.868842 0.366802
vt 0.954909 0.066218
vt 0.954498 0.366802
vt 0.917114 0.386971
vt 0.928846 0.386971
vt 0.926204 0.407166
vt 0.915748 0.407166
vt 0.941318 0.386971
vt 0.955381 0.386971
vt 0.946402 0.407166
vt 0.936607 0.407166
vt 0.869292 0.386971
vt 0.882109 0.386971
vt 0.884057 0.407166
vt 0.873410 0.407166
vt 0.894014 0.386971
vt 0.905594 0.386971
vt 0.905256 0.407166
vt 0.894695 0.407166
vt 0.853114 0.386971
vt 0.863082 0.407166
vt 0.854458 0.369853
vt 0.868429 0.369853
vt 0.941509 0.369853
vt 0.956588 0.369853
vt 0.880789 0.369853
vt 0.892870 0.369853
vt 0.904783 0.369853
vt 0.916664 0.369853
vt 0.928718 0.369853
vt 0.862417 0.026329
vt 0.865415 0.013130
vt 0.875062 0.013130
vt 0.872628 0.026329
vt 0.884840 0.013130
vt 0.883163 0.026329
vt 0.894640 0.013130
vt 0.893725 0.026329
vt 0.904403 0.013130
vt 0.904249 0.026329
vt 0.914097 0.013130
vt 0.914750 0.026329
vt 0.923710 0.013130
vt 0.925259 0.026329
vt 0.933279 0.013130
vt 0.935757 0.026329
vt 0.943062 0.013130
vt 0.945658 0.026329
vt 0.868834 0.045846
vt 0.881439 0.045846
vt 0.893241 0.045846
vt 0.904787 0.045846
vt 0.916336 0.045846
vt 0.928170 0.045846
vt 0.940850 0.045846
vt 0.955302 0.045846
vt 0.853114 0.045846
vt 0.854890 0.063264
vt 0.868029 0.063264
vt 0.880163 0.063264
vt 0.892140 0.063264
vt 0.904019 0.063264
vt 0.915928 0.063264
vt 0.928085 0.063264
vt 0.941129 0.063264
vt 0.957064 0.063264
vt 0.876106 0.420402
vt 0.866354 0.420402
vt 0.944182 0.420402
vt 0.934474 0.420402
vt 0.924953 0.420402
vt 0.915360 0.420402
vt 0.905657 0.420402
vt 0.895852 0.420402
vt 0.885980 0.420402
vt 0.797518 0.429834
vt 0.496934 0.430481
vt 0.496934 0.417679
vt 0.797518 0.417268
vt 0.797518 0.441903
vt 0.496934 0.442651
vt 0.797518 0.453832
vt 0.496934 0.454606
vt 0.797518 0.465782
vt 0.496934 0.466524
vt 0.797518 0.477826
vt 0.496934 0.478468
vt 0.797518 0.502501
vt 0.496934 0.502132
vt 0.496934 0.490325
vt 0.797518 0.489892
vt 0.496934 0.403828
vt 0.797518 0.404233
vt 0.817688 0.441618
vt 0.817688 0.429886
vt 0.837884 0.432527
vt 0.837884 0.442984
vt 0.817688 0.417413
vt 0.817688 0.403349
vt 0.837884 0.412328
vt 0.837884 0.422123
vt 0.817688 0.489442
vt 0.817688 0.476624
vt 0.837884 0.474677
vt 0.837884 0.485324
vt 0.817688 0.464718
vt 0.817688 0.453138
vt 0.837884 0.453477
vt 0.837884 0.464038
vt 0.817688 0.505620
vt 0.837884 0.495653
vt 0.800569 0.504276
vt 0.800569 0.490304
vt 0.800569 0.417223
vt 0.800569 0.402144
vt 0.800569 0.477944
vt 0.800569 0.465863
vt 0.800569 0.453950
vt 0.800569 0.442068
vt 0.800569 0.430014
vt 0.457049 0.496321
vt 0.443852 0.493324
vt 0.443852 0.483678
vt 0.457049 0.486110
vt 0.443852 0.473901
vt 0.457049 0.475576
vt 0.443852 0.464102
vt 0.457049 0.465015
vt 0.443852 0.454339
vt 0.457049 0.454491
vt 0.443852 0.444645
vt 0.457049 0.443990
vt 0.443852 0.435032
vt 0.457049 0.433482
vt 0.443852 0.425463
vt 0.457049 0.422983
vt 0.443852 0.415680
vt 0.457049 0.413083
vt 0.476562 0.489902
vt 0.476562 0.477298
vt 0.476562 0.465497
vt 0.476562 0.453951
vt 0.476562 0.442403
vt 0.476562 0.430569
vt 0.476562 0.417889
vt 0.476562 0.403437
vt 0.476562 0.505621
vt 0.493981 0.503845
vt 0.493981 0.490707
vt 0.493981 0.478574
vt 0.493981 0.466597
vt 0.493981 0.454719
vt 0.493981 0.442810
vt 0.493981 0.430653
vt 0.493981 0.417609
vt 0.493981 0.401673
vt 0.851121 0.482629
vt 0.851121 0.492380
vt 0.851121 0.414547
vt 0.851121 0.424256
vt 0.851121 0.433778
vt 0.851121 0.443371
vt 0.851121 0.453076
vt 0.851121 0.462881
vt 0.851121 0.472754
vt 0.781867 0.269193
vt 0.481276 0.269837
vt 0.481276 0.257035
vt 0.781867 0.256628
vt 0.781867 0.281261
vt 0.481276 0.282006
vt 0.781867 0.293190
vt 0.481276 0.293962
vt 0.781867 0.305139
vt 0.481276 0.305880
vt 0.781867 0.317183
vt 0.481276 0.317826
vt 0.781867 0.341859
vt 0.481276 0.341491
vt 0.481276 0.329683
vt 0.781867 0.329249
vt 0.481276 0.243184
vt 0.781867 0.243594
vt 0.802033 0.280976
vt 0.802033 0.269244
vt 0.822231 0.271885
vt 0.822231 0.282340
vt 0.802033 0.256773
vt 0.802033 0.242710
vt 0.822231 0.251687
vt 0.822231 0.261482
vt 0.802033 0.328798
vt 0.802033 0.315980
vt 0.822231 0.314031
vt 0.822231 0.324677
vt 0.802033 0.304075
vt 0.802033 0.292495
vt 0.822231 0.292832
vt 0.822231 0.303392
vt 0.802033 0.344976
vt 0.822231 0.335006
vt 0.784917 0.343634
vt 0.784917 0.329661
vt 0.784917 0.256583
vt 0.784917 0.241505
vt 0.784917 0.317301
vt 0.784917 0.305220
vt 0.784917 0.293307
vt 0.784917 0.281426
vt 0.784917 0.269373
vt 0.441387 0.335671
vt 0.428189 0.332671
vt 0.428189 0.323024
vt 0.441387 0.325461
vt 0.428189 0.313248
vt 0.441387 0.314926
vt 0.428189 0.303449
vt 0.441387 0.304365
vt 0.428189 0.293687
vt 0.441387 0.293841
vt 0.428189 0.283994
vt 0.441387 0.283342
vt 0.428189 0.274382
vt 0.441387 0.272834
vt 0.428189 0.264814
vt 0.441387 0.262336
vt 0.428189 0.255032
vt 0.441387 0.252436
vt 0.460906 0.329257
vt 0.460906 0.316652
vt 0.460906 0.304851
vt 0.460906 0.293305
vt 0.460906 0.281756
vt 0.460906 0.269923
vt 0.460906 0.257243
vt 0.460906 0.242792
vt 0.460906 0.344976
vt 0.478321 0.343204
vt 0.478321 0.330065
vt 0.478321 0.317931
vt 0.478321 0.305953
vt 0.478321 0.294074
vt 0.478321 0.282165
vt 0.478321 0.270008
vt 0.478321 0.256965
vt 0.478321 0.241030
vt 0.835467 0.321980
vt 0.835467 0.331732
vt 0.835467 0.253905
vt 0.835467 0.263613
vt 0.835467 0.273134
vt 0.835467 0.282726
vt 0.835467 0.292429
vt 0.835467 0.302234
vt 0.835467 0.312106
vt 0.994736 0.561592
vt 0.960885 0.561592
vt 0.960884 0.529163
vt 0.994736 0.529163
vt 0.960884 0.496735
vt 0.994736 0.496735
vt 0.960884 0.464306
vt 0.994737 0.464306
vt 0.960885 0.431878
vt 0.994737 0.431878
vt 0.960885 0.399450
vt 0.994737 0.399450
vt 0.994736 0.658877
vt 0.960885 0.658877
vt 0.960885 0.626448
vt 0.994736 0.626448
vt 0.994736 0.594020
vt 0.960885 0.594020
vt 0.937954 0.584522
vt 0.929605 0.564365
vt 0.940727 0.553242
vt 0.905526 0.584522
vt 0.913875 0.564365
vt 0.882596 0.561592
vt 0.902753 0.553243
vt 0.882596 0.529164
vt 0.902753 0.537513
vt 0.905526 0.506234
vt 0.913875 0.526391
vt 0.937954 0.506233
vt 0.929605 0.526391
vt 0.940727 0.537513
vt 0.274132 0.506992
vt 0.252325 0.506991
vt 0.252325 0.493421
vt 0.274132 0.493421
vt 0.230518 0.506991
vt 0.230518 0.493420
vt 0.208711 0.506991
vt 0.208711 0.493420
vt 0.383170 0.506992
vt 0.361362 0.506992
vt 0.361362 0.493421
vt 0.383170 0.493421
vt 0.339553 0.506992
vt 0.339553 0.493421
vt 0.317746 0.506992
vt 0.317746 0.493421
vt 0.295938 0.506992
vt 0.295938 0.493421
vt 0.285035 0.467099
vt 0.258713 0.478002
vt 0.258713 0.456196
vt 0.274132 0.440777
vt 0.295938 0.440777
vt 0.311357 0.456196
vt 0.311357 0.478002
vt 0.663584 0.636252
vt 0.663584 0.517733
vt 0.822550 0.517733
vt 0.822550 0.636252
vt 0.845221 0.783927
vt 0.820334 0.847205
vt 0.730103 0.847203
vt 0.705219 0.783923
vt 0.565221 0.642859
vt 0.565217 0.783920
vt 0.425215 0.783917
vt 0.425218 0.642855
vt 0.400329 0.847208
vt 0.310083 0.847213
vt 0.285190 0.783926
vt 0.285091 0.911553
vt 0.309977 0.848273
vt 0.400210 0.848273
vt 0.425096 0.911554
vt 0.232065 0.232492
vt 0.248866 0.203952
vt 0.259426 0.222135
vt 0.246254 0.234555
vt 0.285075 0.266294
vt 0.251748 0.266380
vt 0.257114 0.253252
vt 0.274483 0.248058
vt 0.565133 0.911512
vt 0.449968 0.848251
vt 0.540223 0.848224
vt 0.249189 0.328823
vt 0.232241 0.300371
vt 0.246060 0.299485
vt 0.259757 0.310409
vt 0.274478 0.284758
vt 0.258078 0.278544
vt 0.705174 0.911466
vt 0.590005 0.848207
vt 0.680261 0.848178
vt 0.504619 0.636252
vt 0.345653 0.636252
vt 0.345653 0.517733
vt 0.504619 0.517733
vt 0.022133 0.403055
vt 0.037937 0.394452
vt 0.037937 0.478104
vt 0.010272 0.478104
vt 0.705200 0.992103
vt 0.565158 0.992147
vt 0.408473 0.769977
vt 0.408478 0.642855
vt 0.425119 0.992188
vt 0.705223 0.642862
vt 0.116629 0.403055
vt 0.128490 0.478105
vt 0.100825 0.478105
vt 0.100825 0.394453
vt 0.841557 0.517733
vt 0.841557 0.636252
vt 0.408374 0.992193
vt 0.408355 0.925497
vt 0.005570 0.065909
vt 0.005570 0.021291
vt 0.024617 0.028453
vt 0.024617 0.073071
vt 0.331784 0.077440
vt 0.202127 0.077441
vt 0.202127 0.066100
vt 0.331784 0.066100
vt 0.577958 0.111345
vt 0.704714 0.111345
vt 0.704714 0.122690
vt 0.577958 0.122690
vt 0.075384 0.077441
vt 0.050171 0.079231
vt 0.050171 0.062654
vt 0.075383 0.066101
vt 0.024617 0.005357
vt 0.050171 0.026061
vt 0.050171 0.040599
vt 0.010271 0.267658
vt 0.022133 0.307022
vt 0.010272 0.307022
vt 0.010272 0.403055
vt 0.448295 0.147466
vt 0.326605 0.147466
vt 0.326605 0.122690
vt 0.448295 0.122690
vt 0.128491 0.324226
vt 0.128491 0.385851
vt 0.116629 0.385850
vt 0.116630 0.324226
vt 0.448295 0.111345
vt 0.729941 0.109560
vt 0.729941 0.122059
vt 0.577958 0.147466
vt 0.202127 0.041323
vt 0.331784 0.041322
vt 0.704714 0.147466
vt 0.075383 0.041323
vt 0.453475 0.041322
vt 0.453475 0.066100
vt 0.453475 0.077440
vt 0.729941 0.146838
vt 0.755495 0.115721
vt 0.755495 0.160345
vt 0.024617 0.100557
vt 0.755495 0.183444
vt 0.729941 0.162738
vt 0.075383 0.029885
vt 0.202127 0.029884
vt 0.577958 0.158904
vt 0.448295 0.158904
vt 0.704714 0.158904
vt 0.755495 0.088231
vt 0.326605 0.111345
vt 0.331784 0.029884
vt 0.177095 0.329010
vt 0.193895 0.300470
vt 0.774542 0.122882
vt 0.774542 0.167506
vt 0.376818 0.176502
vt 0.410405 0.234675
vt 0.376818 0.292848
vt 0.730046 0.848161
vt 0.820304 0.848132
vt 0.845216 0.911421
vt 0.309645 0.292848
vt 0.309645 0.176502
vt 0.301827 0.925494
vt 0.301932 0.769982
vt 0.037937 0.267658
vt 0.100826 0.267658
vt 0.100826 0.315624
vt 0.037937 0.315624
vt 0.326605 0.158904
vt 0.453475 0.029884
vt 0.037937 0.239993
vt 0.100826 0.239992
vt 0.845242 0.992059
vt 0.193719 0.232591
vt 0.176771 0.204139
vt 0.348777 0.942663
vt 0.383213 0.940490
vt 0.380407 0.948326
vt 0.357994 0.952565
vt 0.333690 0.933714
vt 0.330787 0.950921
vt 0.312840 0.975547
vt 0.312840 0.950921
vt 0.330787 0.975547
vt 0.540331 0.847199
vt 0.513937 0.847198
vt 0.513938 0.800974
vt 0.450099 0.847197
vt 0.476417 0.800973
vt 0.476416 0.847198
vt 0.348777 0.984442
vt 0.333690 0.993125
vt 0.357994 0.974702
vt 0.383213 0.987221
vt 0.380407 0.979481
vt 0.590101 0.847199
vt 0.614893 0.800819
vt 0.616745 0.847200
vt 0.680332 0.847202
vt 0.653759 0.847201
vt 0.655613 0.800820
vt 0.363582 0.656113
vt 0.391735 0.656113
vt 0.388064 0.676725
vt 0.367244 0.677706
vt 0.388500 0.705008
vt 0.366619 0.704518
vt 0.388654 0.948326
vt 0.388654 0.979481
vt 0.397701 0.686175
vt 0.406272 0.702536
vt 0.399149 0.653181
vt 0.349830 0.702282
vt 0.357828 0.686817
vt 0.355921 0.653091
vt 0.388101 0.722830
vt 0.366220 0.722341
vt 0.363582 0.648027
vt 0.391735 0.648027
vt 0.186688 0.636251
vt 0.027723 0.636251
vt 0.027723 0.517733
vt 0.186688 0.517733
vt 0.145132 0.642840
vt 0.285174 0.642825
vt 0.145148 0.783941
vt 0.179541 0.234728
vt 0.166305 0.222376
vt 0.140886 0.266668
vt 0.151383 0.248377
vt 0.168779 0.253481
vt 0.174212 0.266581
vt 0.145103 0.911512
vt 0.170004 0.848246
vt 0.260227 0.848273
vt 0.166273 0.310377
vt 0.180071 0.299656
vt 0.167945 0.278777
vt 0.151736 0.285349
vt 0.005114 0.911470
vt 0.030015 0.848205
vt 0.120239 0.848231
vt 0.037936 0.505769
vt 0.100825 0.505769
vt 0.145079 0.992118
vt 0.005090 0.992077
vt 0.301919 0.642823
vt 0.285068 0.992159
vt 0.005090 0.642855
vt 0.005105 0.783957
vt 0.128491 0.267658
vt 0.128491 0.307022
vt 0.116630 0.307022
vt 0.008716 0.517733
vt 0.008716 0.636251
vt 0.301806 0.992164
vt 0.738394 0.069856
vt 0.721546 0.071551
vt 0.721546 0.032498
vt 0.738394 0.030803
vt 0.566586 0.066100
vt 0.566586 0.077440
vt 0.213525 0.111345
vt 0.213525 0.122690
vt 0.102715 0.122690
vt 0.102715 0.111345
vt 0.677397 0.077440
vt 0.677397 0.066100
vt 0.699431 0.062134
vt 0.699431 0.076604
vt 0.721546 0.012344
vt 0.699431 0.042883
vt 0.699431 0.030128
vt 0.128490 0.403055
vt 0.010272 0.324226
vt 0.022133 0.324226
vt 0.022133 0.385850
vt 0.010272 0.385850
vt 0.080681 0.126643
vt 0.080681 0.112176
vt 0.213525 0.147466
vt 0.566586 0.041322
vt 0.102715 0.147466
vt 0.677397 0.041322
vt 0.080681 0.145891
vt 0.058566 0.156273
vt 0.058566 0.117226
vt 0.721546 0.095657
vt 0.058566 0.176424
vt 0.080681 0.158644
vt 0.677397 0.029884
vt 0.566586 0.029884
vt 0.213525 0.158904
vt 0.102715 0.158904
vt 0.058566 0.093125
vt 0.041717 0.118920
vt 0.041717 0.157967
vt 0.276059 0.234675
vt 0.196443 0.800996
vt 0.196449 0.847233
vt 0.170047 0.847236
vt 0.260305 0.847226
vt 0.233980 0.847229
vt 0.233975 0.800991
vt 0.120263 0.847241
vt 0.093215 0.847244
vt 0.095459 0.800850
vt 0.054727 0.800854
vt 0.056980 0.847248
vt 0.030004 0.847251
vt 0.317916 0.758675
vt 0.322248 0.736193
vt 0.343983 0.737706
vt 0.347337 0.759333
vt 0.322221 0.708159
vt 0.345099 0.708159
vt 0.354275 0.728056
vt 0.363615 0.711157
vt 0.355017 0.762569
vt 0.304624 0.710104
vt 0.312621 0.726452
vt 0.309839 0.761654
vt 0.345099 0.689524
vt 0.322221 0.689524
vt 0.317727 0.767125
vt 0.347148 0.767783
vt 0.845225 0.642866
vt 0.926561 0.937202
vt 0.915742 0.937202
vt 0.915741 0.660873
vt 0.926560 0.660873
vt 0.935503 0.937202
vt 0.935503 0.660872
vt 0.892372 0.937201
vt 0.883910 0.937201
vt 0.883911 0.660872
vt 0.892373 0.660873
vt 0.864148 0.937201
vt 0.849872 0.937201
vt 0.849872 0.660872
vt 0.864149 0.660872
vt 0.909806 0.652259
vt 0.922288 0.652259
vt 0.907279 0.660873
vt 0.877364 0.652259
vt 0.889845 0.652259
vt 0.877364 0.643318
vt 0.922288 0.643318
vt 0.907279 0.937202
vt 0.873090 0.937201
vt 0.873091 0.660872
vt 0.922289 0.945816
vt 0.909806 0.945815
vt 0.889844 0.945815
vt 0.877362 0.945815
vt 0.922288 0.954758
vt 0.877362 0.954757
vt 0.986514 0.961544
vt 0.965321 0.961544
vt 0.965321 0.668177
vt 0.986514 0.668177
vt 0.996044 0.961544
vt 0.996043 0.668177
vt 0.955791 0.961544
vt 0.955791 0.668177
vt 0.949779 0.937202
vt 0.949779 0.660872
vt 0.849872 0.632202
vt 0.864148 0.632201
vt 0.922288 0.983428
vt 0.877361 0.983427
vt 0.922287 0.997704
vt 0.877361 0.997703
vt 0.877364 0.614650
vt 0.922288 0.614650
vt 0.864148 0.965871
vt 0.849872 0.965871
vt 0.935503 0.632203
vt 0.949779 0.632203
vt 0.877364 0.600374
vt 0.922288 0.600374
vt 0.949779 0.965871
vt 0.935503 0.965871
vt 0.873090 0.937199
vt 0.873090 0.660871
vt 0.883909 0.660870
vt 0.883909 0.937199
vt 0.864148 0.937199
vt 0.864148 0.660871
vt 0.907278 0.937199
vt 0.907278 0.660870
vt 0.915741 0.660870
vt 0.915740 0.937199
vt 0.935502 0.937200
vt 0.935502 0.660869
vt 0.949779 0.660869
vt 0.949778 0.937200
vt 0.889844 0.652257
vt 0.892371 0.660870
vt 0.877362 0.652257
vt 0.922287 0.652256
vt 0.909805 0.652256
vt 0.922287 0.643314
vt 0.877362 0.643315
vt 0.892371 0.937199
vt 0.926560 0.660869
vt 0.926559 0.937199
vt 0.889843 0.945812
vt 0.877362 0.945811
vt 0.922287 0.945813
vt 0.909805 0.945813
vt 0.922286 0.954755
vt 0.877361 0.954753
vt 0.965167 0.961544
vt 0.965166 0.668177
vt 0.986359 0.668177
vt 0.986359 0.961544
vt 0.955637 0.961544
vt 0.955636 0.668177
vt 0.995889 0.668177
vt 0.995889 0.961544
vt 0.877361 0.614646
vt 0.922286 0.614645
vt 0.849872 0.937199
vt 0.849872 0.660871
vt 0.935502 0.632196
vt 0.949780 0.632196
vt 0.922284 0.983425
vt 0.877359 0.983422
vt 0.922283 0.997701
vt 0.877358 0.997698
vt 0.922286 0.600369
vt 0.877361 0.600370
vt 0.949778 0.965869
vt 0.935501 0.965869
vt 0.864148 0.965868
vt 0.849872 0.965868
vt 0.393532 0.471294
vt 0.381667 0.464354
vt 0.429665 0.382298
vt 0.441530 0.389239
vt 0.441609 0.375493
vt 0.416166 0.358607
vt 0.428109 0.351802
vt 0.416244 0.344861
vt 0.321105 0.358067
vt 0.321183 0.344321
vt 0.309240 0.351126
vt 0.307337 0.381603
vt 0.295472 0.374663
vt 0.354322 0.477945
vt 0.354400 0.464199
vt 0.381589 0.478100
vt 0.295394 0.388408
vt 0.342457 0.471004
vt 0.368390 0.401521
vt 0.183650 0.469944
vt 0.136118 0.387618
vt 0.148023 0.380745
vt 0.195554 0.463071
vt 0.136118 0.373872
vt 0.149752 0.350258
vt 0.161656 0.357131
vt 0.161656 0.343385
vt 0.256719 0.343385
vt 0.256719 0.357130
vt 0.268623 0.350257
vt 0.282257 0.373871
vt 0.270353 0.380744
vt 0.222821 0.476817
vt 0.195554 0.476817
vt 0.222821 0.463071
vt 0.282257 0.387617
vt 0.234726 0.469944
vt 0.209188 0.400315
vn -1.000000 0.000000 0.000000
vn -0.707107 0.000000 0.707107
vn -0.707107 0.000000 -0.707107
vn 0.000000 0.000000 -1.000000
vn 0.707107 0.000000 -0.707107
vn 1.000000 0.000000 0.000000
vn -0.000000 0.000000 1.000000
vn 0.707107 0.000000 0.707107
vn -0.632822 0.446175 -0.632822
vn -0.894946 0.446175 0.000000
vn -0.632822 0.446175 0.632822
vn 0.000000 0.446175 0.894946
vn -0.632822 0.446175 0.632823
vn 0.632822 0.446175 0.632822
vn 0.894946 0.446175 -0.000000
vn 0.632822 0.446175 -0.632822
vn 0.000000 0.446175 -0.894946
vn 0.632823 -0.446174 0.632822
vn 0.894946 -0.446174 0.000000
vn 0.632822 -0.446174 -0.632823
vn -0.000000 -0.446174 -0.894946
vn -0.632822 -0.446174 -0.632823
vn -0.894946 -0.446174 0.000000
vn -0.632822 -0.446174 0.632822
vn -0.632823 -0.446174 0.632822
vn 0.000000 -0.446174 0.894946
vn 0.000000 0.995890 0.090572
vn 0.064044 0.995890 0.064045
vn 0.090572 0.995890 -0.000000
vn 0.064044 0.995890 -0.064042
vn 0.000000 0.995890 -0.090571
vn -0.064044 0.995890 -0.064045
vn -0.064044 0.995890 -0.064046
vn -0.090572 0.995890 -0.000000
vn -0.064044 0.995890 0.064043
vn -0.064044 0.995890 0.064044
vn -0.090579 -0.995889 -0.000001
vn -0.064049 -0.995889 0.064050
vn -0.064049 -0.995889 -0.064051
vn 0.000000 -0.995889 -0.090580
vn 0.064049 -0.995889 -0.064048
vn 0.090579 -0.995889 0.000001
vn 0.064049 -0.995889 0.064049
vn 0.000000 -0.995889 0.090580
vn -0.632822 0.446174 -0.632823
vn 0.000000 0.446174 0.894946
vn 0.632822 0.446175 0.632823
vn -0.632823 -0.446174 0.632823
vn 0.064044 0.995890 -0.064044
vn 0.000000 0.995890 -0.090572
vn 0.707107 0.000000 -0.707106
vn -0.064049 -0.995889 -0.064049
vn 0.064049 -0.995889 -0.064050
vn -0.064044 0.995890 -0.064043
vn -0.090579 -0.995889 0.000000
vn -0.064049 -0.995889 0.064051
vn 0.000000 -0.995889 -0.090582
vn 0.382684 0.000000 0.923879
vn -0.382683 0.000000 0.923880
vn -0.923879 0.000000 0.382684
vn -0.923880 0.000000 -0.382683
vn -0.382684 0.000000 -0.923879
vn 0.382683 0.000000 -0.923880
vn 0.923879 0.000000 -0.382683
vn 0.923880 0.000000 0.382683
vn 0.001685 0.999990 0.004068
vn 0.004068 0.999990 0.001685
vn 0.004068 0.999990 -0.001685
vn 0.001685 0.999990 -0.004068
vn -0.001685 0.999990 -0.004068
vn -0.004068 0.999990 -0.001685
vn -0.004068 0.999990 0.001685
vn -0.001685 0.999990 0.004068
vn 0.923879 0.000000 -0.382684
vn 0.382683 0.000000 -0.923879
vn -0.923880 0.000000 0.382683
vn -0.382683 0.000000 0.923879
vn 0.000000 1.000000 -0.000002
vn 0.000000 1.000000 0.000004
vn 0.000000 1.000000 0.000000
vn 0.000000 1.000000 -0.000001
vn -0.866025 0.000000 -0.500000
vn 0.000000 0.681148 0.732146
vn 0.000000 0.681148 -0.732146
vn 0.000000 -0.681148 -0.732146
vn -0.634057 -0.681148 -0.366073
vn 0.000000 1.000000 0.000001
vn -0.634057 -0.681148 0.366073
vn -0.866025 0.000000 0.500000
vn -0.866026 0.000000 0.500000
vn 0.000001 0.000000 -1.000000
vn 0.724847 0.000000 0.688910
vn 0.000000 -1.000000 0.000000
vn 0.066421 0.000000 -0.997792
vn 0.000000 -0.681148 0.732146
vn 0.000000 -1.000000 -0.000001
vn -0.457208 0.114024 -0.882020
vn -0.504443 0.087399 -0.859010
vn -0.488128 0.096742 -0.867394
vn -0.440189 0.123310 -0.889398
vn 0.812284 0.346786 -0.468972
vn -0.634057 0.681148 -0.366073
vn 0.532988 0.110906 0.838823
vn 0.547125 0.119093 0.828535
vn 0.506287 0.095637 0.857045
vn 0.491702 0.087399 0.866366
vn -0.634057 0.681148 0.366073
vn -0.730729 0.536700 -0.421887
vn -0.596991 0.724432 -0.344674
vn -0.596795 0.724647 -0.344560
vn -0.408985 0.881462 -0.236128
vn -0.727464 0.542581 0.420001
vn -0.594834 0.726795 0.343427
vn -0.595046 0.726564 0.343549
vn -0.409479 0.881156 0.236412
vn -0.788489 -0.413579 0.455234
vn -0.437153 0.149089 0.886944
vn -0.402041 0.180551 0.897644
vn -0.500834 0.088562 0.861000
vn -0.531920 0.057174 0.844862
vn 0.573945 0.176815 -0.799577
vn 0.547680 0.146327 -0.823793
vn 0.494502 0.087569 -0.864754
vn 0.465711 0.057172 -0.883088
vn 0.812155 0.347187 0.468898
vn -0.788831 -0.412707 -0.455433
vn 0.866025 0.000000 -0.500000
vn 0.634057 -0.681148 -0.366073
vn 0.634057 -0.681148 0.366073
vn 0.866025 0.000000 0.500000
vn 0.866026 0.000000 0.500000
vn -0.724847 0.000000 0.688910
vn -0.066421 0.000000 -0.997792
vn 0.455442 0.099602 -0.884676
vn 0.479576 0.088333 -0.873043
vn 0.492225 0.082320 -0.866567
vn 0.442419 0.105576 -0.890572
vn -0.812284 0.346786 -0.468972
vn 0.634057 0.681148 -0.366073
vn -0.536133 0.096452 0.838605
vn -0.515461 0.087232 0.852462
vn -0.546976 0.101328 0.830993
vn -0.504355 0.082320 0.859563
vn 0.634057 0.681148 0.366073
vn 0.730729 0.536700 -0.421887
vn 0.596795 0.724647 -0.344560
vn 0.596991 0.724432 -0.344674
vn 0.408985 0.881462 -0.236128
vn 0.727464 0.542581 0.420001
vn 0.595046 0.726564 0.343549
vn 0.594834 0.726795 0.343427
vn 0.409479 0.881156 0.236412
vn 0.788488 -0.413579 0.455235
vn 0.437153 0.149089 0.886944
vn 0.500834 0.088562 0.861001
vn 0.402041 0.180551 0.897644
vn 0.531920 0.057174 0.844862
vn -0.573945 0.176815 -0.799577
vn -0.494502 0.087569 -0.864754
vn -0.547680 0.146327 -0.823793
vn -0.465711 0.057172 -0.883088
vn -0.812155 0.347187 0.468898
vn 0.788831 -0.412707 -0.455433
vn 0.197334 0.000000 0.980336
vn -0.125988 0.000000 0.992032
vn 0.197335 0.000000 0.980336
vn 0.500001 0.000000 0.866025
vn -0.866026 0.000000 0.499999
vn -0.500000 0.000000 -0.866025
vn 0.000000 -1.000000 0.000001
vn -0.866025 0.000000 0.500001
vn -0.922118 0.000000 -0.386909
vn -0.750329 0.000000 -0.661065
vn -0.500001 0.000000 -0.866025
vn 0.000002 1.000000 -0.000001
vn 0.000001 1.000000 -0.000001
vn 0.000001 1.000000 -0.000000
vn -0.235927 0.000000 -0.971771
vn 0.723615 0.000000 0.690204
vn 0.500000 0.000000 0.866026
vn 0.500000 0.000000 0.866025
vn -0.197334 0.000000 0.980336
vn -0.197335 0.000000 0.980336
vn 0.125988 0.000000 0.992032
vn -0.500001 0.000000 0.866025
vn 0.866026 0.000000 0.499999
vn 0.500000 0.000000 -0.866025
vn 0.866025 0.000000 0.500001
vn 0.922118 0.000000 -0.386909
vn 0.750329 0.000000 -0.661065
vn 0.500001 0.000000 -0.866025
vn -0.000002 1.000000 -0.000001
vn -0.000001 1.000000 -0.000001
vn -0.000001 1.000000 -0.000000
vn 0.235927 0.000000 -0.971771
vn -0.723615 0.000000 0.690204
vn -0.500000 0.000000 0.866026
vn -0.500000 0.000000 0.866025
vn -0.433013 0.500000 0.750000
vn -0.433012 -0.500001 0.750000
vn 0.433013 -0.500000 -0.750000
vn 0.433012 0.500000 -0.750000
vn -0.866026 -0.000001 -0.500000
vn -0.866026 -0.000001 -0.499999
vn -0.866024 0.000000 -0.499985
vn 0.433013 0.500000 0.750000
vn 0.433012 -0.500001 0.750000
vn -0.433013 -0.500000 -0.750000
vn -0.433012 0.500000 -0.750000
vn 0.866026 -0.000001 -0.500000
vn 0.866024 0.000000 -0.499985
vn 0.866026 -0.000001 -0.499999
usemtl None
s 1
f 3/1/1 43/2/1 42/3/2 2/4/2
f 4/5/3 44/6/3 43/2/1 3/1/1
f 5/7/4 45/8/4 44/6/3 4/5/3
f 6/9/5 46/10/5 45/8/4 5/7/4
f 7/11/6 47/12/6 46/10/5 6/9/5
f 1/13/7 41/14/7 48/15/8 8/16/8
f 8/16/8 48/15/8 47/12/6 7/11/6
f 2/4/2 42/3/2 41/17/7 1/18/7
s 2
f 21/19/9 22/20/10 30/21/10 29/22/9
f 23/23/11 24/24/12 32/25/12 31/26/13
f 17/27/14 18/28/15 26/29/15 25/30/14
f 19/31/16 20/32/17 28/33/17 27/34/16
f 18/28/15 19/31/16 27/34/16 26/29/15
f 24/35/12 17/27/14 25/30/14 32/36/12
f 22/20/10 23/23/11 31/26/13 30/21/10
f 20/32/17 21/19/9 29/22/9 28/33/17
s 3
f 16/37/7 9/38/8 17/27/8 24/35/7
f 15/39/2 16/40/7 24/24/7 23/23/2
f 9/38/8 10/41/6 18/28/6 17/27/8
f 10/41/6 11/42/5 19/31/5 18/28/6
f 11/42/5 12/43/4 20/32/4 19/31/5
f 12/43/4 13/44/3 21/19/3 20/32/4
f 13/44/3 14/45/1 22/20/1 21/19/3
f 14/45/1 15/39/2 23/23/2 22/20/1
s 4
f 72/46/7 80/47/7 73/48/8 65/49/8
f 65/49/8 73/48/8 74/50/6 66/51/6
f 66/51/6 74/50/6 75/52/5 67/53/5
f 67/53/5 75/52/5 76/54/4 68/55/4
f 68/55/4 76/54/4 77/56/3 69/57/3
f 69/57/3 77/56/3 78/58/1 70/59/1
f 70/59/1 78/58/1 79/60/2 71/61/2
f 71/61/2 79/60/2 80/62/7 72/63/7
s 5
f 57/64/18 65/49/18 66/51/19 58/65/19
f 58/65/19 66/51/19 67/53/20 59/66/20
f 59/66/20 67/53/20 68/55/21 60/67/21
f 60/67/21 68/55/21 69/57/22 61/68/22
f 61/68/22 69/57/22 70/59/23 62/69/23
f 62/69/23 70/59/23 71/61/24 63/70/25
f 63/70/25 71/61/24 72/63/26 64/71/26
f 64/72/26 72/46/26 65/49/18 57/64/18
s 6
f 41/14/27 56/73/27 49/74/28 48/15/28
f 48/15/28 49/74/28 50/75/29 47/12/29
f 47/12/29 50/75/29 51/76/30 46/10/30
f 46/10/30 51/76/30 52/77/31 45/8/31
f 45/8/31 52/77/31 53/78/32 44/6/33
f 44/6/33 53/78/32 54/79/34 43/2/34
f 43/2/34 54/79/34 55/80/35 42/3/36
f 42/3/36 55/80/35 56/81/27 41/17/27
s 7
f 54/79/1 62/69/1 63/70/2 55/80/2
f 53/78/3 61/68/3 62/69/1 54/79/1
f 52/77/4 60/67/4 61/68/3 53/78/3
f 51/76/5 59/66/5 60/67/4 52/77/4
f 50/75/6 58/65/6 59/66/5 51/76/5
f 49/74/8 57/64/8 58/65/6 50/75/6
f 55/80/2 63/70/2 64/71/7 56/81/7
f 56/73/7 64/72/7 57/64/8 49/74/8
s 8
f 32/36/7 25/30/8 33/82/8 40/83/7
f 31/26/2 32/25/7 40/84/7 39/85/2
f 30/21/1 31/26/2 39/85/2 38/86/1
f 29/22/3 30/21/1 38/86/1 37/87/3
f 28/33/4 29/22/3 37/87/3 36/88/4
f 27/34/5 28/33/4 36/88/4 35/89/5
f 26/29/6 27/34/5 35/89/5 34/90/6
f 25/30/8 26/29/6 34/90/6 33/82/8
s 9
f 3/1/37 2/4/38 15/39/38 14/45/37
f 4/5/39 3/1/37 14/45/37 13/44/39
f 5/7/40 4/5/39 13/44/39 12/43/40
f 6/9/41 5/7/40 12/43/40 11/42/41
f 7/11/42 6/9/41 11/42/41 10/41/42
f 8/16/43 7/11/42 10/41/42 9/38/43
f 1/13/44 8/16/43 9/38/43 16/37/44
f 2/4/38 1/18/44 16/40/44 15/39/38
s 10
f 83/91/1 123/92/1 122/93/2 82/94/2
f 84/95/3 124/96/3 123/92/1 83/91/1
f 85/97/4 125/98/4 124/96/3 84/95/3
f 86/99/5 126/100/5 125/98/4 85/97/4
f 87/101/6 127/102/6 126/100/5 86/99/5
f 81/103/7 121/104/7 128/105/8 88/106/8
f 88/106/8 128/105/8 127/102/6 87/101/6
f 82/94/2 122/93/2 121/107/7 81/108/7
s 11
f 101/109/9 102/110/10 110/111/10 109/112/45
f 103/113/11 104/114/12 112/115/46 111/116/11
f 97/117/47 98/118/15 106/119/15 105/120/47
f 99/121/16 100/122/17 108/123/17 107/124/16
f 98/118/15 99/121/16 107/124/16 106/119/15
f 104/125/12 97/117/47 105/120/47 112/126/46
f 102/110/10 103/113/11 111/116/11 110/111/10
f 100/122/17 101/109/9 109/112/45 108/123/17
s 12
f 96/127/7 89/128/8 97/117/8 104/125/7
f 95/129/2 96/130/7 104/114/7 103/113/2
f 89/128/8 90/131/6 98/118/6 97/117/8
f 90/131/6 91/132/5 99/121/5 98/118/6
f 91/132/5 92/133/4 100/122/4 99/121/5
f 92/133/4 93/134/3 101/109/3 100/122/4
f 93/134/3 94/135/1 102/110/1 101/109/3
f 94/135/1 95/129/2 103/113/2 102/110/1
s 13
f 152/136/7 160/137/7 153/138/8 145/139/8
f 145/139/8 153/138/8 154/140/6 146/141/6
f 146/141/6 154/140/6 155/142/5 147/143/5
f 147/143/5 155/142/5 156/144/4 148/145/4
f 148/145/4 156/144/4 157/146/3 149/147/3
f 149/147/3 157/146/3 158/148/1 150/149/1
f 150/149/1 158/148/1 159/150/2 151/151/2
f 151/151/2 159/150/2 160/152/7 152/153/7
s 14
f 137/154/18 145/139/18 146/141/19 138/155/19
f 138/155/19 146/141/19 147/143/20 139/156/20
f 139/156/20 147/143/20 148/145/21 140/157/21
f 140/157/21 148/145/21 149/147/22 141/158/22
f 141/158/22 149/147/22 150/149/23 142/159/23
f 142/159/23 150/149/23 151/151/48 143/160/25
f 143/160/25 151/151/48 152/153/26 144/161/26
f 144/162/26 152/136/26 145/139/18 137/154/18
s 15
f 121/104/27 136/163/27 129/164/28 128/105/28
f 128/105/28 129/164/28 130/165/29 127/102/29
f 127/102/29 130/165/29 131/166/49 126/100/49
f 126/100/49 131/166/49 132/167/50 125/98/50
f 125/98/50 132/167/50 133/168/32 124/96/33
f 124/96/33 133/168/32 134/169/34 123/92/34
f 123/92/34 134/169/34 135/170/36 122/93/36
f 122/93/36 135/170/36 136/171/27 121/107/27
s 16
f 134/169/1 142/159/1 143/160/2 135/170/2
f 133/168/3 141/158/3 142/159/1 134/169/1
f 132/167/4 140/157/4 141/158/3 133/168/3
f 131/166/5 139/156/5 140/157/4 132/167/4
f 130/165/6 138/155/6 139/156/5 131/166/5
f 129/164/8 137/154/8 138/155/6 130/165/6
f 135/170/2 143/160/2 144/161/7 136/171/7
f 136/163/7 144/162/7 137/154/8 129/164/8
s 17
f 112/126/7 105/120/8 113/172/8 120/173/7
f 111/116/2 112/115/7 120/174/7 119/175/2
f 110/111/1 111/116/2 119/175/2 118/176/1
f 109/112/3 110/111/1 118/176/1 117/177/3
f 108/123/4 109/112/3 117/177/3 116/178/4
f 107/124/51 108/123/4 116/178/4 115/179/51
f 106/119/6 107/124/51 115/179/51 114/180/6
f 105/120/8 106/119/6 114/180/6 113/172/8
s 18
f 83/91/37 82/94/38 95/129/38 94/135/37
f 84/95/52 83/91/37 94/135/37 93/134/52
f 85/97/40 84/95/52 93/134/52 92/133/40
f 86/99/53 85/97/40 92/133/40 91/132/53
f 87/101/42 86/99/53 91/132/53 90/131/42
f 88/106/43 87/101/42 90/131/42 89/128/43
f 81/103/44 88/106/43 89/128/43 96/127/44
f 82/94/38 81/108/44 96/130/44 95/129/38
s 19
f 163/181/1 203/182/1 202/183/2 162/184/2
f 164/185/3 204/186/3 203/182/1 163/181/1
f 165/187/4 205/188/4 204/186/3 164/185/3
f 166/189/5 206/190/5 205/188/4 165/187/4
f 167/191/6 207/192/6 206/190/5 166/189/5
f 161/193/7 201/194/7 208/195/8 168/196/8
f 168/196/8 208/195/8 207/192/6 167/191/6
f 162/184/2 202/183/2 201/197/7 161/198/7
s 20
f 181/199/9 182/200/10 190/201/10 189/202/9
f 183/203/11 184/204/46 192/205/46 191/206/11
f 177/207/47 178/208/15 186/209/15 185/210/47
f 179/211/16 180/212/17 188/213/17 187/214/16
f 178/208/15 179/211/16 187/214/16 186/209/15
f 184/215/46 177/207/47 185/210/47 192/216/46
f 182/200/10 183/203/11 191/206/11 190/201/10
f 180/212/17 181/199/9 189/202/9 188/213/17
s 21
f 176/217/7 169/218/8 177/207/8 184/215/7
f 175/219/2 176/220/7 184/204/7 183/203/2
f 169/218/8 170/221/6 178/208/6 177/207/8
f 170/221/6 171/222/5 179/211/5 178/208/6
f 171/222/5 172/223/4 180/212/4 179/211/5
f 172/223/4 173/224/3 181/199/3 180/212/4
f 173/224/3 174/225/1 182/200/1 181/199/3
f 174/225/1 175/219/2 183/203/2 182/200/1
s 22
f 232/226/7 240/227/7 233/228/8 225/229/8
f 225/229/8 233/228/8 234/230/6 226/231/6
f 226/231/6 234/230/6 235/232/5 227/233/5
f 227/233/5 235/232/5 236/234/4 228/235/4
f 228/235/4 236/234/4 237/236/3 229/237/3
f 229/237/3 237/236/3 238/238/1 230/239/1
f 230/239/1 238/238/1 239/240/2 231/241/2
f 231/241/2 239/240/2 240/242/7 232/243/7
s 23
f 217/244/18 225/229/18 226/231/19 218/245/19
f 218/245/19 226/231/19 227/233/20 219/246/20
f 219/246/20 227/233/20 228/235/21 220/247/21
f 220/247/21 228/235/21 229/237/22 221/248/22
f 221/248/22 229/237/22 230/239/23 222/249/23
f 222/249/23 230/239/23 231/241/48 223/250/48
f 223/250/48 231/241/48 232/243/26 224/251/26
f 224/252/26 232/226/26 225/229/18 217/244/18
s 24
f 201/194/27 216/253/27 209/254/28 208/195/28
f 208/195/28 209/254/28 210/255/29 207/192/29
f 207/192/29 210/255/29 211/256/49 206/190/49
f 206/190/49 211/256/49 212/257/31 205/188/31
f 205/188/31 212/257/31 213/258/54 204/186/54
f 204/186/54 213/258/54 214/259/34 203/182/34
f 203/182/34 214/259/34 215/260/35 202/183/35
f 202/183/35 215/260/35 216/261/27 201/197/27
s 25
f 214/259/1 222/249/1 223/250/2 215/260/2
f 213/258/3 221/248/3 222/249/1 214/259/1
f 212/257/4 220/247/4 221/248/3 213/258/3
f 211/256/5 219/246/5 220/247/4 212/257/4
f 210/255/6 218/245/6 219/246/5 211/256/5
f 209/254/8 217/244/8 218/245/6 210/255/6
f 215/260/2 223/250/2 224/251/7 216/261/7
f 216/253/7 224/252/7 217/244/8 209/254/8
s 26
f 192/216/7 185/210/8 193/262/8 200/263/7
f 191/206/2 192/205/7 200/264/7 199/265/2
f 190/201/1 191/206/2 199/265/2 198/266/1
f 189/202/3 190/201/1 198/266/1 197/267/3
f 188/213/4 189/202/3 197/267/3 196/268/4
f 187/214/51 188/213/4 196/268/4 195/269/51
f 186/209/6 187/214/51 195/269/51 194/270/6
f 185/210/8 186/209/6 194/270/6 193/262/8
s 27
f 163/181/55 162/184/56 175/219/56 174/225/55
f 164/185/39 163/181/55 174/225/55 173/224/39
f 165/187/57 164/185/39 173/224/39 172/223/57
f 166/189/53 165/187/57 172/223/57 171/222/53
f 167/191/42 166/189/53 171/222/53 170/221/42
f 168/196/43 167/191/42 170/221/42 169/218/43
f 161/193/44 168/196/43 169/218/43 176/217/44
f 162/184/56 161/198/44 176/220/44 175/219/56
s 28
f 241/271/58 242/272/58 244/273/59 243/274/59
f 243/274/59 244/273/59 246/275/60 245/276/60
f 245/276/60 246/275/60 248/277/61 247/278/61
f 247/278/61 248/277/61 250/279/62 249/280/62
f 249/280/62 250/279/62 252/281/63 251/282/63
f 251/283/63 252/284/63 254/285/64 253/286/64
f 255/287/65 256/288/65 242/272/58 241/271/58
f 253/286/64 254/285/64 256/288/65 255/287/65
s 29
f 242/272/66 256/289/67 264/290/67 257/291/66
f 256/289/67 254/292/68 263/293/68 264/290/67
f 254/292/68 252/294/69 262/295/69 263/293/68
f 252/294/69 250/296/70 261/297/70 262/295/69
f 250/296/70 248/298/71 260/299/71 261/297/70
f 248/298/71 246/300/72 259/301/72 260/299/71
f 246/300/72 244/273/73 258/302/73 259/301/72
f 244/273/73 242/272/66 257/291/66 258/302/73
s 30
f 257/303/58 264/304/65 272/305/65 265/306/58
f 264/304/65 263/307/74 271/308/74 272/305/65
f 263/307/74 262/309/75 270/310/75 271/308/74
f 262/311/75 261/312/62 269/313/62 270/314/75
f 261/312/62 260/315/61 268/316/61 269/313/62
f 260/315/61 259/317/76 267/318/76 268/316/61
f 259/317/76 258/319/77 266/320/77 267/318/76
f 258/319/77 257/303/58 265/306/58 266/320/77
s 31
f 266/320/78 265/306/78 273/321/78
s 32
f 265/306/79 272/322/79 273/321/79
s 33
f 272/322/80 271/323/80 273/321/80
s 34
f 271/323/81 270/324/81 273/321/81
s 35
f 270/324/81 269/325/81 273/321/81
s 36
f 269/325/80 268/326/80 273/321/80
s 37
f 268/326/80 267/327/80 273/321/80
s 38
f 267/327/81 266/320/81 273/321/81
s 39
f 301/328/82 298/329/82 302/330/82 305/331/82
s 40
f 360/332/83 366/333/83 281/334/83 275/335/83
s 41
f 299/336/82 277/337/82 279/338/82 303/339/82
s 42
f 285/340/84 370/341/84 364/342/84 279/338/84
s 43
f 363/343/85 369/344/85 284/345/85 278/346/85
s 44
f 334/347/80 285/348/80 338/349/80 340/350/80
f 283/351/80 333/352/80 339/353/80 337/354/80
f 333/352/80 334/347/80 340/350/80 339/353/80
s 45
f 276/355/86 278/346/86 284/356/86 282/357/86
s 46
f 281/358/87 332/359/87 345/360/87 343/361/87
f 333/352/80 283/351/81 344/362/81 346/363/80
f 332/359/87 333/352/80 346/363/80 345/360/87
s 47
f 274/364/88 276/355/88 282/365/88 280/366/88
s 48
f 294/367/7 379/368/7 382/369/7 297/370/7
s 49
f 376/371/1 395/372/1 373/373/1 371/374/1
s 50
f 274/364/89 295/375/89 300/376/89 276/355/89
s 51
f 286/377/4 307/378/4 303/339/4 279/338/4
s 52
f 276/355/82 300/376/82 304/379/82 278/346/82
s 53
f 294/367/90 297/370/90 298/329/90 301/328/90
s 54
f 296/380/90 275/335/90 277/337/90 299/336/90
s 55
f 291/381/6 286/382/6 288/383/6 310/384/6
s 56
f 306/385/4 309/386/4 305/331/4 302/330/4
s 57
f 308/387/91 287/388/91 278/346/91 304/379/91
s 58
f 291/389/92 290/390/92 312/391/92 313/392/92
s 59
f 296/393/80 299/394/80 321/395/80 318/396/80
s 60
f 301/397/80 305/398/80 327/399/80 323/400/80
s 61
f 303/401/80 307/402/80 329/403/80 325/404/80
s 62
f 290/405/93 306/406/93 328/407/93 312/391/93
s 63
f 372/408/1 377/409/1 393/410/1
s 64
f 392/411/1 376/371/1 371/374/1
s 65
f 317/412/7 402/413/7 401/414/7 316/415/7
s 66
f 309/416/6 306/417/6 290/418/6 293/419/6
s 67
f 294/420/80 301/397/80 323/400/80 316/415/80
s 68
f 299/394/80 303/401/80 325/404/80 321/395/80
s 69
f 305/398/80 309/421/80 331/422/80 327/399/80
s 70
f 316/415/90 323/400/90 322/423/90 317/412/90
s 71
f 318/396/90 321/395/90 320/424/90 319/425/90
s 72
f 323/400/82 327/399/82 326/426/82 322/423/82
s 73
f 321/395/82 325/404/82 324/427/82 320/424/82
s 74
f 319/425/7 404/428/7 403/429/7 318/396/7
s 75
f 318/396/80 403/429/80 381/430/80 296/393/80
s 76
f 328/407/94 324/427/94 325/404/94 329/403/94
s 77
f 330/431/94 326/426/94 327/399/94 331/422/94
s 78
f 331/422/6 315/432/6 314/433/6 330/431/6
s 79
f 329/403/6 313/392/6 312/391/6 328/407/6
s 80
f 307/402/80 291/434/80 313/392/80 329/403/80
s 81
f 292/435/93 308/436/93 330/431/93 314/433/93
s 82
f 302/437/93 298/438/93 320/424/93 324/427/93
s 83
f 300/439/93 295/440/93 317/412/93 322/423/93
s 84
f 308/436/93 304/441/93 326/426/93 330/431/93
s 85
f 309/421/80 293/442/80 315/432/80 331/422/80
s 86
f 304/441/93 300/439/93 322/423/93 326/426/93
s 87
f 316/415/80 401/414/80 379/443/80 294/420/80
s 88
f 298/438/93 297/444/93 319/425/93 320/424/93
s 89
f 306/406/93 302/437/93 324/427/93 328/407/93
s 90
f 366/445/80 417/446/80 332/359/80 281/358/80
s 91
f 293/447/92 292/448/92 314/433/92 315/432/92
s 92
f 280/449/93 282/450/93 284/451/93
s 93
f 280/452/95 365/453/95 359/454/95 274/364/95
s 94
f 284/451/93 369/455/93 365/456/93 280/449/93
s 95
f 372/457/4 363/343/4 278/346/4 287/388/4
s 96
f 279/338/4 364/342/4 371/458/4 286/377/4
s 97
f 374/459/4 289/460/4 311/461/4 396/462/4
s 98
f 380/463/96 402/413/96 317/412/96 295/440/96
s 99
f 382/464/93 404/428/93 319/425/93 297/444/93
s 100
f 372/408/1 374/459/1 396/462/1 377/409/1
s 101
f 289/460/80 374/459/80 372/465/80 287/466/80
s 102
f 274/364/7 359/454/7 380/467/7 295/375/7
s 103
f 334/347/80 419/468/80 370/469/80 285/348/80
s 104
f 419/468/80 334/347/80 332/359/80 417/446/80
s 105
f 334/347/80 333/352/80 332/359/80
s 106
f 344/470/97 342/471/98 354/472/98 356/473/99
f 346/474/100 344/470/97 356/473/99 358/475/100
s 107
f 345/476/101 346/477/101 358/475/101 357/478/101
s 108
f 277/337/102 283/479/102 337/480/102 335/481/102
f 285/482/102 279/338/102 336/483/102 338/484/102
f 279/338/102 277/337/102 335/481/102 336/483/102
s 109
f 343/485/103 345/486/104 357/478/104 355/487/105
f 341/488/106 343/485/103 355/487/105 353/489/106
s 110
f 283/490/107 277/337/107 342/491/107 344/492/107
s 111
f 275/335/107 281/493/107 343/494/107 341/495/107
s 112
f 277/337/107 275/335/107 341/495/107 342/491/107
s 113
f 348/496/108 347/497/108 349/498/109 350/499/110
f 350/499/110 349/498/109 351/500/111 352/501/111
s 114
f 354/472/112 353/489/112 355/487/113 356/473/114
f 356/473/114 355/487/113 357/478/115 358/475/115
s 115
f 342/502/116 341/503/116 353/489/116 354/472/116
s 116
f 337/504/117 339/505/118 351/500/118 349/498/119
f 335/506/120 337/504/117 349/498/119 347/497/120
s 117
f 340/507/121 338/508/122 350/499/123 352/501/121
f 338/508/122 336/509/124 348/496/124 350/499/123
s 118
f 339/510/125 340/511/125 352/501/125 351/500/125
s 119
f 336/512/126 335/513/126 347/497/126 348/496/126
s 120
f 386/514/127 390/515/127 387/516/127 383/517/127
s 121
f 384/518/127 388/519/127 364/342/127 362/520/127
s 122
f 419/468/80 425/521/80 423/522/80 370/469/80
f 368/523/80 422/524/80 424/525/80 418/526/80
f 418/526/80 424/525/80 425/521/80 419/468/80
s 123
f 361/527/128 367/528/128 369/529/128 363/343/128
s 124
f 366/445/80 428/530/80 430/531/80 417/446/80
f 418/526/80 431/532/80 429/533/81 368/523/81
f 417/446/80 430/531/80 431/532/80 418/526/80
s 125
f 359/534/129 365/535/129 367/536/129 361/527/129
s 126
f 371/537/93 373/373/93 288/383/93 286/538/93
s 127
f 359/534/130 361/527/130 385/539/130 380/540/130
s 128
f 371/458/4 364/342/4 388/519/4 392/541/4
s 129
f 361/527/127 363/343/127 389/542/127 385/539/127
s 130
f 379/368/131 386/514/131 383/517/131 382/369/131
s 131
f 381/543/131 384/518/131 362/520/131 360/544/131
s 132
f 287/545/6 308/546/6 292/547/6
s 133
f 391/548/4 387/516/4 390/515/4 394/549/4
s 134
f 393/550/4 389/542/4 363/343/4 372/457/4
s 135
f 376/551/132 398/552/132 397/553/132 375/554/132
s 136
f 381/430/80 403/429/80 406/555/80 384/556/80
s 137
f 386/557/80 408/558/80 412/559/80 390/560/80
s 138
f 388/561/80 410/562/80 414/563/80 392/564/80
s 139
f 375/565/93 397/553/93 413/566/93 391/567/93
s 140
f 307/568/6 286/382/6 291/381/6
s 141
f 287/545/6 292/547/6 311/461/6 289/460/6
s 142
f 394/569/1 378/570/1 375/571/1 391/572/1
s 143
f 379/443/80 401/414/80 408/558/80 386/557/80
s 144
f 384/556/80 406/555/80 410/562/80 388/561/80
s 145
f 390/560/80 412/559/80 416/573/80 394/574/80
s 146
f 401/414/131 402/413/131 407/575/131 408/558/131
s 147
f 403/429/131 404/428/131 405/576/131 406/555/131
s 148
f 408/558/127 407/575/127 411/577/127 412/559/127
s 149
f 406/555/127 405/576/127 409/578/127 410/562/127
s 150
f 413/566/133 414/563/133 410/562/133 409/578/133
s 151
f 415/579/133 416/573/133 412/559/133 411/577/133
s 152
f 416/573/1 415/579/1 399/580/1 400/581/1
s 153
f 414/563/1 413/566/1 397/553/1 398/552/1
s 154
f 392/564/80 414/563/80 398/552/80 376/582/80
s 155
f 377/583/93 399/580/93 415/579/93 393/584/93
s 156
f 387/585/93 409/578/93 405/576/93 383/586/93
s 157
f 385/587/93 407/575/93 402/413/93 380/463/93
s 158
f 393/584/93 415/579/93 411/577/93 389/588/93
s 159
f 394/574/80 416/573/80 400/581/80 378/589/80
s 160
f 389/588/93 411/577/93 407/575/93 385/587/93
s 161
f 383/586/93 405/576/93 404/428/93 382/464/93
s 162
f 391/567/93 413/566/93 409/578/93 387/585/93
s 163
f 378/590/132 400/581/132 399/580/132 377/591/132
s 164
f 365/456/93 369/455/93 367/592/93
s 165
f 419/468/80 417/446/80 418/526/80
s 166
f 429/485/134 441/487/135 439/489/136 427/488/136
f 431/486/137 443/478/137 441/487/135 429/485/134
s 167
f 430/477/138 442/475/138 443/478/138 431/476/138
s 168
f 362/520/139 420/593/139 422/594/139 368/595/139
f 370/596/139 423/597/139 421/598/139 364/342/139
f 364/342/139 421/598/139 420/593/139 362/520/139
s 169
f 428/470/140 440/473/141 442/475/142 430/474/142
f 426/471/143 438/472/143 440/473/141 428/470/140
s 170
f 368/599/144 429/600/144 427/601/144 362/520/144
f 360/544/144 426/602/144 428/603/144 366/604/144
f 362/520/144 427/601/144 426/602/144 360/544/144
s 171
f 433/605/145 435/606/146 434/607/147 432/608/145
f 435/606/146 437/609/148 436/610/148 434/607/147
s 172
f 439/489/149 441/487/150 440/473/151 438/472/149
f 441/487/150 443/478/152 442/475/152 440/473/151
s 173
f 427/503/153 439/489/153 438/472/153 426/502/153
s 174
f 422/611/154 434/607/155 436/610/156 424/612/156
f 420/613/157 432/608/157 434/607/155 422/611/154
s 175
f 425/614/158 437/609/158 435/606/159 423/615/160
f 423/615/160 435/606/159 433/605/161 421/616/161
s 176
f 424/617/162 436/610/162 437/609/162 425/618/162
s 177
f 421/619/163 433/605/163 432/608/163 420/620/163
s 178
f 296/380/7 381/621/7 360/332/7 275/335/7
s 179
f 395/372/4 310/384/4 288/383/4 373/373/4
s 180
f 396/462/4 311/461/4 310/384/4 395/372/4
s 181
f 293/419/6 290/418/6 310/384/6 311/461/6
s 182
f 293/419/6 311/461/6 292/547/6
s 183
f 291/381/6 310/384/6 290/418/6
s 184
f 378/570/1 396/462/1 395/372/1 375/571/1
s 185
f 378/570/1 377/409/1 396/462/1
s 186
f 376/371/1 375/571/1 395/372/1
s 187
f 456/622/164 450/623/165 446/624/165 457/625/166
f 466/626/167 456/622/164 457/625/166 464/627/167
s 188
f 453/628/168 451/629/168 447/630/168 454/631/168
s 189
f 465/632/169 448/633/169 444/634/169 467/635/169
s 190
f 461/636/93 457/637/93 446/624/96 455/638/96
f 459/639/93 460/640/93 454/631/170 447/630/170
f 467/641/93 464/642/170 461/636/93 460/640/93
f 467/641/93 460/640/93 459/639/93
f 464/642/170 457/637/93 461/636/93
s 191
f 450/623/171 452/643/171 455/638/171 446/624/171
s 192
f 451/629/172 458/644/173 459/645/173 447/630/172
f 458/644/173 465/632/174 467/635/174 459/645/173
s 193
f 452/643/175 450/623/175 456/646/176 463/647/176
f 451/629/175 453/628/175 462/648/177 458/649/177
f 462/648/177 463/647/176 466/650/80 465/651/80
f 458/649/177 462/648/177 465/651/80
f 463/647/176 456/646/176 466/650/80
s 194
f 463/652/89 462/653/89 460/654/89 461/655/89
s 195
f 452/656/178 463/652/178 461/655/178 455/657/178
s 196
f 462/653/179 453/658/179 454/659/179 460/654/179
s 197
f 449/660/180 466/626/180 464/627/180 445/661/180
s 198
f 467/635/169 444/634/169 468/662/169 475/663/169
s 199
f 465/651/89 466/650/89 474/664/89 473/665/89
s 200
f 473/665/80 474/664/80 471/666/80 470/667/80
s 201
f 464/642/89 467/641/89 475/668/89 472/669/89
s 202
f 448/633/169 465/632/169 473/670/169 470/671/169
s 203
f 445/661/181 464/627/181 472/672/181 469/673/181
s 204
f 468/674/93 469/675/93 472/669/93 475/668/93
s 205
f 466/626/181 449/660/181 471/676/181 474/677/181
s 206
f 488/678/182 489/679/183 478/680/184 482/681/184
f 498/682/185 496/683/185 489/679/183 488/678/182
s 207
f 485/684/186 486/685/186 479/686/186 483/687/186
s 208
f 497/688/187 499/689/187 476/690/187 480/691/187
s 209
f 493/692/93 487/693/96 478/680/96 489/694/93
f 491/695/93 479/686/170 486/685/170 492/696/93
f 499/697/93 492/696/93 493/692/93 496/698/170
f 499/697/93 491/695/93 492/696/93
f 496/698/170 493/692/93 489/694/93
s 210
f 482/681/188 478/680/188 487/693/188 484/699/188
s 211
f 483/687/189 479/686/189 491/700/190 490/701/190
f 490/701/190 491/700/190 499/689/191 497/688/191
s 212
f 484/699/192 495/702/193 488/703/193 482/681/192
f 483/687/192 490/704/194 494/705/194 485/684/192
f 494/705/194 497/706/80 498/707/80 495/702/193
f 490/704/194 497/706/80 494/705/194
f 495/702/193 498/707/80 488/703/193
s 213
f 495/708/130 493/709/130 492/710/130 494/711/130
s 214
f 484/712/195 487/713/195 493/709/195 495/708/195
s 215
f 494/711/196 492/710/196 486/714/196 485/715/196
s 216
f 496/698/130 504/716/130 507/717/130 499/697/130
s 217
f 481/718/197 477/719/197 496/683/197 498/682/197
s 218
f 499/689/187 507/720/187 500/721/187 476/690/187
s 219
f 497/706/130 505/722/130 506/723/130 498/707/130
s 220
f 505/722/80 502/724/80 503/725/80 506/723/80
s 221
f 500/726/93 507/717/93 504/716/93 501/727/93
s 222
f 480/691/187 502/728/187 505/729/187 497/688/187
s 223
f 477/719/198 501/662/198 504/663/198 496/683/198
s 224
f 498/682/198 506/730/198 503/731/198 481/718/198
s 225
f 508/732/199 509/733/199 511/734/199 510/735/199
s 226
f 510/736/200 511/734/200 513/737/200 512/738/200
s 227
f 512/739/93 513/737/93 515/740/93 514/741/93
s 228
f 514/742/201 515/740/201 517/743/201 516/744/201
s 229
f 518/745/192 519/746/192 509/733/192 508/747/192
s 230
f 516/748/202 517/743/202 519/746/202 518/749/202
s 231
f 511/734/203 509/733/204 520/750/205
f 509/733/204 519/746/204 520/750/205
f 519/746/204 517/743/204 520/750/205
f 517/743/204 515/740/204 520/750/205
f 515/740/204 513/737/203 520/750/205
f 513/737/203 511/734/203 520/750/205
s 232
f 521/751/206 523/752/206 524/753/206 522/754/206
s 233
f 523/755/207 525/756/207 526/757/207 524/753/207
s 234
f 525/758/93 527/759/93 528/760/93 526/757/93
s 235
f 527/761/208 529/762/208 530/763/208 528/760/208
s 236
f 531/764/175 521/765/175 522/754/175 532/766/175
s 237
f 529/767/209 531/768/209 532/766/209 530/763/209
s 238
f 524/753/210 533/769/211 522/754/212
f 522/754/212 533/769/211 532/766/212
f 532/766/212 533/769/211 530/763/212
f 530/763/212 533/769/211 528/760/212
f 528/760/212 533/769/211 526/757/210
f 526/757/210 533/769/211 524/753/210
